^C:\USERS\РУСЛАН\DOCUMENTS\VISUAL STUDIO 2015\PROJECTS\CONSOLEAPPLICATION1\CONSOLEAPPLICATION1\FORWARD.CPP
/c /ZI /nologo /W3 /WX- /sdl /Od /Oy- /D WIN32 /D _DEBUG /D _CONSOLE /D _UNICODE /D UNICODE /Gm /EHsc /RTC1 /MDd /GS /fp:precise /Zc:wchar_t /Zc:forScope /Zc:inline /Fo"DEBUG\\" /Fd"DEBUG\VC140.PDB" /Gd /TP /analyze- C:\USERS\РУСЛАН\DOCUMENTS\VISUAL STUDIO 2015\PROJECTS\CONSOLEAPPLICATION1\CONSOLEAPPLICATION1\FORWARD.CPP
^C:\USERS\РУСЛАН\DOCUMENTS\VISUAL STUDIO 2015\PROJECTS\CONSOLEAPPLICATION1\CONSOLEAPPLICATION1\MONETARY.CPP
/c /ZI /nologo /W3 /WX- /sdl /Od /Oy- /D WIN32 /D _DEBUG /D _CONSOLE /D _UNICODE /D UNICODE /Gm /EHsc /RTC1 /MDd /GS /fp:precise /Zc:wchar_t /Zc:forScope /Zc:inline /Fo"DEBUG\\" /Fd"DEBUG\VC140.PDB" /Gd /TP /analyze- C:\USERS\РУСЛАН\DOCUMENTS\VISUAL STUDIO 2015\PROJECTS\CONSOLEAPPLICATION1\CONSOLEAPPLICATION1\MONETARY.CPP
^C:\USERS\РУСЛАН\DOCUMENTS\VISUAL STUDIO 2015\PROJECTS\CONSOLEAPPLICATION1\CONSOLEAPPLICATION1\SHABLON.CPP
/c /ZI /nologo /W3 /WX- /sdl /Od /Oy- /D WIN32 /D _DEBUG /D _CONSOLE /D _UNICODE /D UNICODE /Gm /EHsc /RTC1 /MDd /GS /fp:precise /Zc:wchar_t /Zc:forScope /Zc:inline /Fo"DEBUG\\" /Fd"DEBUG\VC140.PDB" /Gd /TP /analyze- C:\USERS\РУСЛАН\DOCUMENTS\VISUAL STUDIO 2015\PROJECTS\CONSOLEAPPLICATION1\CONSOLEAPPLICATION1\SHABLON.CPP
^C:\USERS\РУСЛАН\DOCUMENTS\VISUAL STUDIO 2015\PROJECTS\CONSOLEAPPLICATION1\CONSOLEAPPLICATION1\SOURCE.CPP
/c /ZI /nologo /W3 /WX- /sdl /Od /Oy- /D WIN32 /D _DEBUG /D _CONSOLE /D _UNICODE /D UNICODE /Gm /EHsc /RTC1 /MDd /GS /fp:precise /Zc:wchar_t /Zc:forScope /Zc:inline /Fo"DEBUG\\" /Fd"DEBUG\VC140.PDB" /Gd /TP /analyze- C:\USERS\РУСЛАН\DOCUMENTS\VISUAL STUDIO 2015\PROJECTS\CONSOLEAPPLICATION1\CONSOLEAPPLICATION1\SOURCE.CPP
^C:\USERS\РУСЛАН\DOCUMENTS\VISUAL STUDIO 2015\PROJECTS\CONSOLEAPPLICATION1\CONSOLEAPPLICATION1\TABLE.CPP
/c /ZI /nologo /W3 /WX- /sdl /Od /Oy- /D WIN32 /D _DEBUG /D _CONSOLE /D _UNICODE /D UNICODE /Gm /EHsc /RTC1 /MDd /GS /fp:precise /Zc:wchar_t /Zc:forScope /Zc:inline /Fo"DEBUG\\" /Fd"DEBUG\VC140.PDB" /Gd /TP /analyze- C:\USERS\РУСЛАН\DOCUMENTS\VISUAL STUDIO 2015\PROJECTS\CONSOLEAPPLICATION1\CONSOLEAPPLICATION1\TABLE.CPP
^C:\USERS\РУСЛАН\DOCUMENTS\VISUAL STUDIO 2015\PROJECTS\CONSOLEAPPLICATION1\CONSOLEAPPLICATION1\VKLAD.CPP
/c /ZI /nologo /W3 /WX- /sdl /Od /Oy- /D WIN32 /D _DEBUG /D _CONSOLE /D _UNICODE /D UNICODE /Gm /EHsc /RTC1 /MDd /GS /fp:precise /Zc:wchar_t /Zc:forScope /Zc:inline /Fo"DEBUG\\" /Fd"DEBUG\VC140.PDB" /Gd /TP /analyze- C:\USERS\РУСЛАН\DOCUMENTS\VISUAL STUDIO 2015\PROJECTS\CONSOLEAPPLICATION1\CONSOLEAPPLICATION1\VKLAD.CPP
